<svg xmlns="http://www.w3.org/2000/svg" width="172.795" height="61" viewBox="0 0 172.795 61">
  <defs>
    <style>
      .cls-1, .cls-2 {
        fill: #fff;
      }

      .cls-1 {
        stroke: #fff;
      }

      .cls-2 {
        font-size: 51px;
        font-family: Swiss721BT-Black, Swis721 Blk BT;
        font-weight: 800;
      }
    </style>
  </defs>
  <g id="Grupo_28" data-name="Grupo 28" transform="translate(-541.159 -1586.869)">
    <g id="Grupo_29" data-name="Grupo 29" transform="translate(1)">
      <g id="Grupo_24" data-name="Grupo 24" transform="translate(541.954 1595.869)">
        <g id="Grupo_23" data-name="Grupo 23" transform="matrix(0.966, 0.259, -0.259, 0.966, 6.457, -5.363)">
          <g id="Grupo_17" data-name="Grupo 17" transform="translate(37.163 14.05)">
            <path id="Caminho_110" data-name="Caminho 110" class="cls-1" d="M189.841,59.879a.171.171,0,0,1,.122-.206,2.789,2.789,0,0,0-1.384-5.4.166.166,0,0,1-.2-.121.171.171,0,0,1,.121-.207A3.127,3.127,0,0,1,190.047,60,.169.169,0,0,1,189.841,59.879Z" transform="translate(-188.369 -53.845)"/>
          </g>
          <g id="Grupo_18" data-name="Grupo 18" transform="translate(12.557 6.397)">
            <path id="Caminho_111" data-name="Caminho 111" class="cls-1" d="M188.589,73.009c-.129-.059-13.127-6-21.427-4.2a.17.17,0,0,1-.2-.122l-2.015-7.862a.169.169,0,0,1,.116-.2c8.137-2.419,16.679-13.875,16.764-13.99a.17.17,0,0,1,.235-.036.168.168,0,0,1,.037.236c-.087.116-8.586,11.517-16.784,14.066l1.934,7.549c8.412-1.706,21.35,4.2,21.481,4.261a.168.168,0,0,1-.142.306Z" transform="translate(-164.943 -46.558)"/>
          </g>
          <g id="Grupo_19" data-name="Grupo 19" transform="translate(3.148 21.112)">
            <path id="Caminho_112" data-name="Caminho 112" class="cls-1" d="M159.1,70.4A1.853,1.853,0,0,1,157.306,69l-1.262-4.928a1.852,1.852,0,0,1,1.333-2.253l4.874-1.25a.169.169,0,0,1,.084.328l-4.874,1.249a1.513,1.513,0,0,0-1.089,1.841l1.262,4.928a1.513,1.513,0,0,0,1.842,1.091l4.874-1.249a.169.169,0,1,1,.084.328l-4.874,1.248A1.852,1.852,0,0,1,159.1,70.4Z" transform="translate(-155.985 -60.568)"/>
          </g>
          <g id="Grupo_20" data-name="Grupo 20" transform="translate(32.978)">
            <path id="Caminho_113" data-name="Caminho 113" class="cls-1" d="M195.292,74.371c-3.092,0-7.122-6.556-9.416-15.513a41.129,41.129,0,0,1-1.44-12.287c.223-3.5,1.191-5.644,2.72-6.037,3.158-.8,7.513,5.981,9.939,15.447h0c2.426,9.47,1.862,17.52-1.281,18.325A2.141,2.141,0,0,1,195.292,74.371Zm-7.6-33.567a1.792,1.792,0,0,0-.448.057c-1.358.348-2.257,2.437-2.468,5.732a40.831,40.831,0,0,0,1.43,12.18c2.34,9.132,6.617,15.947,9.528,15.206s3.378-8.782,1.039-17.913h0C194.548,47.393,190.579,40.8,187.689,40.8Z" transform="translate(-184.385 -40.468)"/>
          </g>
          <g id="Grupo_21" data-name="Grupo 21" transform="translate(9.873 31.59)">
            <path id="Caminho_114" data-name="Caminho 114" class="cls-1" d="M166.66,82.635a2.381,2.381,0,0,1-1.281-.3c-1.483-.955-2.841-9.492-2.989-10.461a.168.168,0,1,1,.333-.051c.4,2.594,1.693,9.491,2.841,10.229.653.421,2.241.275,3.861-.363,1.241-.49,2.161-1.144,2.281-1.626a5.7,5.7,0,0,0-.64-2.482,19.578,19.578,0,0,1-1.579-6.864.171.171,0,0,1,.167-.172h0a.169.169,0,0,1,.169.167,19.323,19.323,0,0,0,1.556,6.749,5.554,5.554,0,0,1,.651,2.685c-.182.718-1.4,1.431-2.484,1.857A8.513,8.513,0,0,1,166.66,82.635Z" transform="translate(-162.387 -70.545)"/>
          </g>
          <g id="Grupo_22" data-name="Grupo 22" transform="translate(0 26.825)">
            <path id="Caminho_115" data-name="Caminho 115" class="cls-1" d="M154.341,68.683a1.356,1.356,0,0,1-.332-2.67.168.168,0,0,1,.082.327,1.019,1.019,0,0,0-.266,1.863,1.008,1.008,0,0,0,.771.109.172.172,0,0,1,.207.122.17.17,0,0,1-.121.206A1.364,1.364,0,0,1,154.341,68.683Z" transform="translate(-152.988 -66.008)"/>
          </g>
        </g>
      </g>
      <text id="VDP" class="cls-2" transform="translate(654.954 1635.869)"><tspan x="-57.5" y="0">VDP</tspan></text>
    </g>
  </g>
</svg>
