<svg xmlns="http://www.w3.org/2000/svg" width="120" height="120" viewBox="0 0 120 120">
  <defs>
    <style>
      .cls-1, .cls-2, .cls-3, .cls-5 {
        fill: none;
      }

      .cls-1 {
        stroke: #000;
        stroke-width: 2px;
      }

      .cls-2, .cls-3 {
        stroke: #2e2e2e;
        stroke-width: 4px;
      }

      .cls-3 {
        stroke-linecap: round;
      }

      .cls-4 {
        stroke: none;
      }
    </style>
  </defs>
  <g id="Grupo_47" data-name="Grupo 47" transform="translate(-160 -201)">
    <g id="Elipse_4" data-name="Elipse 4" class="cls-1" transform="translate(160 201)">
      <circle class="cls-4" cx="60" cy="60" r="60"/>
      <circle class="cls-5" cx="60" cy="60" r="59"/>
    </g>
    <g id="Grupo_42" data-name="Grupo 42" transform="translate(2.5 2)">
      <g id="Elipse_5" data-name="Elipse 5" class="cls-2" transform="translate(196 217)">
        <circle class="cls-4" cx="22" cy="22" r="22"/>
        <circle class="cls-5" cx="22" cy="22" r="20"/>
      </g>
      <path id="Caminho_128" data-name="Caminho 128" class="cls-3" d="M2174.073-997.594c0-32.406,66.727-32.406,66.727,0" transform="translate(-1989.573 1289)"/>
    </g>
  </g>
</svg>
